<?xml version="1.0" encoding="utf-8"?>
<!-- Generator: Adobe Illustrator 25.0.0, SVG Export Plug-In . SVG Version: 6.00 Build 0)  -->
<svg version="1.1" id="Capa_1" xmlns="http://www.w3.org/2000/svg" xmlns:xlink="http://www.w3.org/1999/xlink" x="0px" y="0px"
	 viewBox="0 0 727.2 442.7" style="enable-background:new 0 0 727.2 442.7;" xml:space="preserve">
<style type="text/css">
	.st0{fill:#04034E;}
</style>
<g>
	<g>
		<g>
			<g>
				<path class="st0" d="M415.3,160.3L285.1,30.1c-3.7-3.7-3.7-9.7,0-13.4L299,2.8c3.7-3.7,9.7-3.7,13.4,0L442.6,133
					c3.7,3.7,3.7,9.7,0,13.4l-13.9,13.9C425,164,419,164,415.3,160.3z"/>
			</g>
			<g>
				<path class="st0" d="M467.7,107.9l-58.4-58.4c-3.7-3.7-3.7-9.7,0-13.4l13.9-13.9c3.7-3.7,9.7-3.7,13.4,0L495,80.6
					c3.7,3.7,3.7,9.7,0,13.4l-13.9,13.9C477.4,111.6,471.4,111.6,467.7,107.9z"/>
			</g>
			<g>
				<path class="st0" d="M246.6,55.2l-13.9,13.9c-3.7,3.7-3.7,9.7,0,13.4l102.8,102.9c3.7,3.7,3.7,9.7,0,13.4l-31,31
					c-3.7,3.7-3.7,9.7,0,13.4l13.9,13.9c3.7,3.7,9.7,3.7,13.4,0l37.7-37.7l20.6-20.6c3.7-3.7,3.7-9.7,0-13.4L260,55.2
					C256.3,51.5,250.3,51.5,246.6,55.2z"/>
			</g>
		</g>
		<g>
			<path class="st0" d="M65.5,412.2L77,429.9c0.3,0.4,0.4,0.8,0.4,1.2c0,1.2-0.8,2.5-2.1,3.4c-3.3,2.3-7.5,4.3-12.6,5.9
				c-5.2,1.6-9.8,2.4-13.9,2.4c-8.8,0-16.9-2.1-24.3-6.3c-7.3-4.2-13.1-10-17.4-17.3c-4.2-7.3-6.4-15.3-6.4-24
				c0-8.8,2.1-16.8,6.4-24.1c4.3-7.3,10.1-13,17.4-17.2c7.4-4.2,15.5-6.4,24.3-6.4c4.1,0,8.7,0.9,14,2.6c5.2,1.7,9.6,3.8,13.1,6.2
				c1,0.7,1.6,1.9,1.6,3c0,0.7-0.2,1.3-0.5,1.7l-11.7,17.5c-0.6,0.8-1.4,1.2-2.6,1.2c-1,0-1.9-0.3-2.8-0.9c-1.8-1-3.3-2-5.5-2.7
				c-2.2-0.8-4.1-1.2-5.7-1.2c-11.3-0.2-20.9,9.2-20.6,20.2c-0.2,11,9.3,20.3,20.6,20.1c1.6,0,3.4-0.3,5.5-1s3.9-1.6,5.4-2.6
				c1.1-0.7,2.1-1.1,3.2-1.1C63.9,410.8,64.8,411.2,65.5,412.2z"/>
			<path class="st0" d="M160.9,354.2c7.3,4.2,13,9.9,17.2,17.2c4.2,7.2,6.4,15.2,6.4,24c0,8.7-2.1,16.7-6.4,24
				c-4.2,7.2-9.9,13-17.2,17.2c-7.2,4.2-15.2,6.3-24,6.3s-16.8-2.1-24.1-6.3c-7.2-4.2-13-10-17.2-17.2c-4.2-7.3-6.3-15.3-6.3-24
				c0-8.8,2.1-16.8,6.3-24c4.2-7.3,10-13,17.3-17.2s15.3-6.4,24-6.4C145.6,347.8,153.6,349.9,160.9,354.2z M157,395.3
				c0.2-11-9.1-20.3-20.1-20.1c-11-0.2-20.3,9.1-20.1,20.1c-0.2,10.9,9.1,20.2,20.1,20C147.9,415.5,157.2,406.2,157,395.3z"/>
			<path class="st0" d="M230.6,402.5c0,4.3,0.8,7.6,2.4,10s4.5,3.6,8.7,3.6s7.1-1.2,8.7-3.6c1.6-2.4,2.4-5.7,2.4-10v-49.8
				c0-1.7,1.2-2.9,2.9-2.9H277c1.9,0,3.2,1.2,3.2,2.9v49.5c0,26.4-13.5,40.6-38.4,40.6c-26.1,0-38.4-13.8-38.4-40.6v-49.6
				c0-1.7,1-2.9,2.6-2.9h22.1c1.7,0,2.7,1.2,2.7,2.9v49.9H230.6z"/>
			<path class="st0" d="M302.4,353.5c0-2.1,1.8-3.9,3.9-3.9h30c8.8,0,16.7,1.9,23.6,5.8c6.9,3.8,12.3,9.2,16.1,16.1
				c3.8,6.9,5.7,14.8,5.7,23.7c0,8.8-1.9,16.7-5.7,23.6c-3.8,6.9-9.2,12.3-16.1,16.1c-6.9,3.8-14.7,5.7-23.6,5.7h-30
				c-2.1,0-3.9-1.8-3.9-3.8V353.5z M336.2,414.7c10.3,0.2,18.1-8.8,17.9-19.4c0-11.3-7.4-20.1-17.9-19.9l-6.4,0.1v39.3L336.2,414.7
				L336.2,414.7z"/>
			<path class="st0" d="M402.4,353.6c0-2.5,1.4-3.9,3.9-3.9h59.3c2.4,0,3.9,1.5,3.9,3.9v18.2c0,2.4-1.4,3.9-3.9,3.9H430v9.6h25.9
				c2.7,0,4.2,1.5,4.2,4v12.4c0,2.4-1.6,3.9-4.2,3.9H430v9.1h35.3c3.3,0,5.4,2,5.4,5v17.1c0,2.3-1.6,3.8-3.9,3.8h-60.4
				c-2.4,0-3.9-1.5-3.9-3.8L402.4,353.6L402.4,353.6z"/>
			<path class="st0" d="M493.4,353.5c0-2.4,1.4-3.9,3.9-3.9h56.6c2.4,0,3.9,1.4,3.9,3.9v18.3c0,2.4-1.4,3.9-3.9,3.9H521v14.5h24.8
				c2.4,0,3.9,1.4,3.9,3.9v13.6c0,2.4-1.4,3.9-3.9,3.9H521v25.3c0,2.3-1.4,3.8-3.9,3.8h-19.8c-2.4,0-3.9-1.5-3.9-3.8L493.4,353.5
				L493.4,353.5z"/>
			<path class="st0" d="M639.5,438c0,1.7-1,2.7-2.7,2.7H581c-1.7,0-2.7-1-2.7-2.7v-85.5c0-1.7,1.1-2.7,2.7-2.7h22
				c1.7,0,2.7,1,2.7,2.7v62.2h31.1c1.7,0,2.7,1.1,2.7,2.7V438z"/>
			<path class="st0" d="M726.7,354.1l-29.6,52.7V437c0,2.3-1.4,3.8-3.8,3.8h-19.8c-2.4,0-3.9-1.5-3.9-3.8v-30.3l-29.5-52.5
				c-0.3-0.7-0.4-1.3-0.4-1.8c0-1.7,1.2-2.6,3.2-2.6H666c1.8,0,3.7,1.5,4.8,3.6l12.5,24.9l12.7-25c1.1-2.2,2.9-3.4,4.9-3.4H724
				c2.1,0,3.2,0.9,3.2,2.6C727.1,353.1,727.1,353.3,726.7,354.1z"/>
		</g>
	</g>
</g>
</svg>
