<?xml version="1.0" encoding="utf-8"?>
<!-- Generator: Adobe Illustrator 25.0.0, SVG Export Plug-In . SVG Version: 6.00 Build 0)  -->
<svg version="1.1" id="Capa_1" xmlns="http://www.w3.org/2000/svg" xmlns:xlink="http://www.w3.org/1999/xlink" x="0px" y="0px"
	 viewBox="0 0 1200 1200" style="enable-background:new 0 0 1200 1200;" xml:space="preserve">
<style type="text/css">
	.st0{fill:#04034E;}
</style>
<g>
	<g>
		<g>
			<g>
				<path class="st0" d="M651.7,538.9L521.5,408.7c-3.7-3.7-3.7-9.7,0-13.4l13.9-13.9c3.7-3.7,9.7-3.7,13.4,0L679,511.6
					c3.7,3.7,3.7,9.7,0,13.4l-13.9,13.9C661.4,542.6,655.4,542.6,651.7,538.9z"/>
			</g>
			<g>
				<path class="st0" d="M704.1,486.5l-58.4-58.4c-3.7-3.7-3.7-9.7,0-13.4l13.9-13.9c3.7-3.7,9.7-3.7,13.4,0l58.4,58.4
					c3.7,3.7,3.7,9.7,0,13.4l-13.9,13.9C713.8,490.2,707.8,490.2,704.1,486.5z"/>
			</g>
			<g>
				<path class="st0" d="M483,433.8l-13.9,13.9c-3.7,3.7-3.7,9.7,0,13.4L571.9,564c3.7,3.7,3.7,9.7,0,13.4l-31,31
					c-3.7,3.7-3.7,9.7,0,13.4l13.9,13.9c3.7,3.7,9.7,3.7,13.4,0l37.7-37.7l20.6-20.6c3.7-3.7,3.7-9.7,0-13.4L496.4,433.8
					C492.7,430.1,486.7,430.1,483,433.8z"/>
			</g>
		</g>
		<g>
			<path class="st0" d="M301.9,790.8l11.5,17.7c0.3,0.4,0.4,0.8,0.4,1.2c0,1.2-0.8,2.5-2.1,3.4c-3.3,2.3-7.5,4.3-12.6,5.9
				c-5.2,1.6-9.8,2.4-13.9,2.4c-8.8,0-16.9-2.1-24.3-6.3c-7.3-4.2-13.1-10-17.4-17.3c-4.2-7.3-6.4-15.3-6.4-24
				c0-8.8,2.1-16.8,6.4-24.1c4.3-7.3,10.1-13,17.4-17.2c7.4-4.2,15.5-6.4,24.3-6.4c4.1,0,8.7,0.9,14,2.6c5.2,1.7,9.6,3.8,13.1,6.2
				c1,0.7,1.6,1.9,1.6,3c0,0.7-0.2,1.3-0.5,1.7l-11.7,17.5c-0.6,0.8-1.4,1.2-2.6,1.2c-1,0-1.9-0.3-2.8-0.9c-1.4-1.1-3.3-2-5.5-2.7
				c-2.2-0.8-4.1-1.2-5.7-1.2c-11.3-0.2-20.9,9.2-20.6,20.2c-0.2,11,9.3,20.3,20.6,20.1c1.6,0,3.4-0.3,5.5-1
				c2.1-0.7,3.9-1.6,5.4-2.6c1.1-0.7,2.1-1.1,3.2-1.1C300.3,789.4,301.2,789.8,301.9,790.8z"/>
			<path class="st0" d="M397.3,732.8c7.3,4.2,13,9.9,17.2,17.2c4.2,7.2,6.4,15.2,6.4,24c0,8.7-2.1,16.7-6.4,24
				c-4.2,7.2-9.9,13-17.2,17.2c-7.2,4.2-15.2,6.3-24,6.3c-8.8,0-16.8-2.1-24.1-6.3c-7.2-4.2-13-10-17.2-17.2
				c-4.2-7.3-6.3-15.3-6.3-24c0-8.8,2.1-16.8,6.3-24c4.2-7.3,10-13,17.3-17.2c7.3-4.2,15.3-6.4,24-6.4
				C382,726.4,390,728.5,397.3,732.8z M393.4,773.9c0.2-11-9.1-20.3-20.1-20.1c-11-0.2-20.3,9.1-20.1,20.1
				c-0.2,10.9,9.1,20.2,20.1,20C384.3,794.1,393.6,784.8,393.4,773.9z"/>
			<path class="st0" d="M467,781.1c0,4.3,0.8,7.6,2.4,10c1.6,2.4,4.5,3.6,8.7,3.6c4.2,0,7.1-1.2,8.7-3.6c1.6-2.4,2.4-5.7,2.4-10
				v-49.8c0-1.7,1.2-2.9,2.9-2.9h21.3c1.9,0,3.2,1.2,3.2,2.9v49.5c0,26.4-13.5,40.6-38.4,40.6c-26.1,0-38.4-13.8-38.4-40.6v-49.6
				c0-1.7,1-2.9,2.6-2.9h22.1c1.7,0,2.7,1.2,2.7,2.9V781.1z"/>
			<path class="st0" d="M538.8,732.1c0-2.1,1.8-3.9,3.9-3.9h30c8.8,0,16.7,1.9,23.6,5.8c6.9,3.8,12.3,9.2,16.1,16.1
				c3.8,6.9,5.7,14.8,5.7,23.7c0,8.8-1.9,16.7-5.7,23.6c-3.8,6.9-9.2,12.3-16.1,16.1c-6.9,3.8-14.7,5.7-23.6,5.7h-30
				c-2.1,0-3.9-1.8-3.9-3.8V732.1z M572.6,793.3c10.3,0.2,18.1-8.8,17.9-19.4c0-11.3-7.4-20.1-17.9-19.9l-6.4,0.1v39.3H572.6z"/>
			<path class="st0" d="M638.8,732.2c0-2.5,1.4-3.9,3.9-3.9h59.3c2.4,0,3.9,1.5,3.9,3.9v18.2c0,2.4-1.4,3.9-3.9,3.9h-35.6v9.6h25.9
				c2.7,0,4.2,1.5,4.2,4v12.4c0,2.4-1.6,3.9-4.2,3.9h-25.9v9.1h35.3c3.3,0,5.4,2,5.4,5v17.1c0,2.3-1.6,3.8-3.9,3.8h-60.4
				c-2.4,0-3.9-1.5-3.9-3.8V732.2z"/>
			<path class="st0" d="M729.8,732.1c0-2.4,1.4-3.9,3.9-3.9h56.6c2.4,0,3.9,1.4,3.9,3.9v18.3c0,2.4-1.4,3.9-3.9,3.9h-32.9v14.5h24.8
				c2.4,0,3.9,1.4,3.9,3.9v13.6c0,2.4-1.4,3.9-3.9,3.9h-24.8v25.3c0,2.3-1.4,3.8-3.9,3.8h-19.8c-2.4,0-3.9-1.5-3.9-3.8V732.1z"/>
			<path class="st0" d="M875.9,816.6c0,1.7-1,2.7-2.7,2.7h-55.8c-1.7,0-2.7-1-2.7-2.7v-85.5c0-1.7,1.1-2.7,2.7-2.7h22
				c1.7,0,2.7,1,2.7,2.7v62.2h31.1c1.7,0,2.7,1.1,2.7,2.7V816.6z"/>
			<path class="st0" d="M963.1,732.7l-29.6,52.7v30.2c0,2.3-1.4,3.8-3.8,3.8h-19.8c-2.4,0-3.9-1.5-3.9-3.8v-30.3l-29.5-52.5
				c-0.3-0.7-0.4-1.3-0.4-1.8c0-1.7,1.2-2.6,3.2-2.6h23.1c1.8,0,3.7,1.5,4.8,3.6l12.5,24.9l12.7-25c1.1-2.2,2.9-3.4,4.9-3.4h23.1
				c2.1,0,3.2,0.9,3.2,2.6C963.4,731.4,963.3,732,963.1,732.7z"/>
		</g>
	</g>
</g>
</svg>
